…
<h3 class="legislator-blue">Using the <code>collectorItalyChamber()</code> function</h3>

In the previous section, you built the collector function. You leveraged the patterns in the different legislative index pages to create the instructions to parse the entities. The code will iterate across pages with a similar structure based on the legislative session, while handling differences between them.

The <code>collectorItalyChamber()</code> function expects a single argument paths, the **legislature index** (i.e., paths_source), which will provide the HTML source to extract the nodes and gather the expected output for all the 18 legislative terms of the *Camera dei Deputati*. The function renders a set of nested lists containing the tables with the constituency, political party, name, and Wikipedia URL of each legislator for each session.

```r
# retrieve basic data from Wikipedia tables ---------------------------------------------
italy_chamber_core <- collectorItalyChamber(paths = path_source) %>%
  purrr::map(magrittr::set_colnames, c("constituency", "party", "name", "url", "session"))

italy_chamber_core

## [[1]]
## A tibble: 704 × 5
##    constituency party              name                        url                                     session
##    <chr>        <chr>              <chr>                       <chr>                                   <dbl>
##  1 Piemonte 1   Centrosinistra     Andrea Giorgis              /wiki/Andrea_Giorgis                    18
##  2 Piemonte 1   Centrodestra       Roberto Rosso               /wiki/Roberto_Rosso_(politico_196…      18
##  3 Piemonte 1   Centrodestra       Augusta Montaruli           /wiki/Augusta_Montaruli                 18
##  4 Piemonte 1   Centrosinistra     Stefano Lepri               /wiki/Stefano_Lepri_(politico)          18
##  5 Piemonte 1   Movimento 5 Stelle Celeste D'Arrando           /wiki/Celeste_D%27Arrando               18
##  6 Piemonte 1   Centrodestra       Alessandro Manuel Benvenuto /wiki/Alessandro_Manuel_Benvenuto       18
##  7 Piemonte 1   Centrodestra       Carluccio Giacometto        /wiki/Carluccio_Giacometto              18
##  8 Piemonte 1   Centrodestra       Claudia Porchietto          /wiki/Claudia_Porchietto                18
##  9 Piemonte 1   Centrodestra       Claudia Porchietto          /wiki/Claudia_Porchietto                18
## 10 Piemonte 1   Centrodestra       Daniela Ruffino             /wiki/Daniela_Ruffino                   18
### … with 694 more rows
### ℹ Use `print(n = ...)` to see more rows
##
## [[2]]
### A tibble: 635 × 5
##    constituency party                  name              url                           session
##    <chr>        <chr>                  <chr>             <chr>                          <dbl>
##  1 Piemonte 1   Partito Democratico    Cesare Damiano    /wiki/Cesare_Damiano           17
##  2 Piemonte 1   Partito Democratico    Paola Bragantini  /wiki/Paola_Bragantini         17
##  3 Piemonte 1   Partito Democratico    Giacomo Portas    /wiki/Giacomo_Portas           17
##  4 Piemonte 1   Partito Democratico    Francesca Bonomo  /wiki/Francesca_Bonomo         17
##  5 Piemonte 1   Partito Democratico    Edoardo Patriarca /wiki/Edoardo_Patriarca        17
##  6 Piemonte 1   Partito Democratico    Anna Rossomando   /wiki/Anna_Rossomando          17
##  7 Piemonte 1   Partito Democratico    Andrea Giorgis    /wiki/Andrea_Giorgis           17
##  8 Piemonte 1   Partito Democratico    Antonio Boccuzzi  /wiki/Antonio_Boccuzzi         17
##  9 Piemonte 1   Partito Democratico    Silvia Fregolent  /wiki/Silvia_Fregolent         17
## 10 Piemonte 1   Partito Democratico    Umberto D'Ottavio /wiki/Umberto_D%27Ottavio      17
##  # … with 625 more rows
##  # ℹ Use `print(n = ...)` to see more rows
##
##  [[3]]
##  # A tibble: 749 × 5
##     constituency   party                name                   url                               session
##     <chr>          <chr>                <chr>                  <chr>                             <dbl>
##  1  Piemonte 1     Partito Democratico  Piero Fassino          /wiki/Piero_Fassino               16
##  2  Piemonte 1     Partito Democratico  Antonio Boccuzzi       /wiki/Antonio_Boccuzzi            16
##  3  Piemonte 1     Partito Democratico  Anna Rossomando        /wiki/Anna_Rossomando             16
##  4  Piemonte 1     Partito Democratico  Giorgio Merlo          /wiki/Giorgio_Merlo               16
##  5  Piemonte 1     Partito Democratico  Marco Calgaro          /wiki/Marco_Calgaro               16
##  6  Piemonte 1     Partito Democratico  Gianni Vernetti        /wiki/Gianni_Vernetti             16
##  7  Piemonte 1     Partito Democratico  Stefano Esposito       /wiki/Stefano_Esposito            16
##  8  Piemonte 1     Partito Democratico  Giacomo Antonio Portas /wiki/Giacomo_Antonio_Portas      16
##  9  Piemonte 1     Partito Democratico  Mimmo Lucà             /wiki/Mimmo_Luc%C3%A0             16
##  10 Piemonte 1     Popolo della Libertà Guido Crosetto         /wiki/Guido_Crosetto              16
##  # … with 739 more rows
##  # ℹ Use `print(n = ...)` to see more rows
##  …
```
…
