…
You can further tabulate the attributes of the <code>node</code> object into a workable dataframe, as such:

```r
list_table <- tibble::tibble(
                 url = node %>% rvest::html_attr("href"),
                 name = node %>% rvest::html_text()
              )
list_table

## # A tibble: 772 × 2
## url                                       name
## <chr>                                     <chr>
## 1 /wiki/Collegio_unico                    Collegio Unico Nazionale
## 2 /wiki/Democrazia_Cristiana              Democrazia Cristiana
## 3 /wiki/Attilio_Piccioni                  Attilio Piccioni
## 4 /wiki/Maria_De_Unterrichter_Jervolino   Maria De Unterrichter Jervolino
## 5 /wiki/Giuseppe_Fuschini                 Giuseppe Fuschini
## 6 /wiki/Edoardo_Martino                   Edoardo Martino
## 7 /wiki/Fronte_Democratico_Popolare       Fronte Democratico Popolare
## 8 /wiki/Virgilio_Nasi                     Virgilio Nasi
## 9 /wiki/Rosa_Fazio                        Rosa Fazio
## 10 /wiki/Antonio_Giolitti                 Antonio Giolitti
## # … with 762 more rows
```

The new dataframe <code>list_table</code> contains the URLs and text attributes from each <code>&lt;a&gt;</code> node in the table. As you can see, in the previous code chunk, you introduced two additional functions: first) <code>rvest::html_attr()</code> to get specific attributes from a node and second) <code>rvest::html_text()</code> to get the text attached to a node. You could have also extracted the <code>name</code> by getting the title attribute, as such:

```r
tibble::tibble(
    url = node %>% rvest::html_attr("href"),
    name = node %>% rvest::html_attr("title")
)

## # A tibble: 772 × 2
## url                                       name
## <chr>                                     <chr>
## 1 /wiki/Collegio_unico                    Collegio Unico Nazionale
## 2 /wiki/Democrazia_Cristiana              Democrazia Cristiana
## 3 /wiki/Attilio_Piccioni                  Attilio Piccioni
## 4 /wiki/Maria_De_Unterrichter_Jervolino   Maria De Unterrichter Jervolino
## 5 /wiki/Giuseppe_Fuschini                 Giuseppe Fuschini
## 6 /wiki/Edoardo_Martino                   Edoardo Martino
## 7 /wiki/Fronte_Democratico_Popolare       Fronte Democratico Popolare
## 8 /wiki/Virgilio_Nasi                     Virgilio Nasi
## 9 /wiki/Rosa_Fazio                        Rosa Fazio
## 10 /wiki/Antonio_Giolitti                 Antonio Giolitti
## # … with 762 more rows
```
…
<h3 class="legislator-blue">Getting HTML tables into R</h3>

As you have seen, the data of interest is located in a <code>&lt;table&gt;</code> node of the <code><span style="color: #007700">&lt;div</span> <span style="color: #000077">id=</span><span style="background-color: #e0e0ff">&quot;mw-content-text&quot;</span><span style="color: #007700">&gt;</span></code> section. Fortunately, <code>rvest</code> has a means to easily parse an HTML table into a dataframe, that is: <code>rvest::html_table()</code>.

```r
parsed_html %>% rvest::html_table()

## [[1]]
## # A tibble: 1 × 2
## X1    X2
## <lgl> <chr>
##   1 NA    Questa voce  sull'argomento elezioni in Italia è solo un abbozzo.Contribuisci a migliorarla secondo le convenzioni di Wikipedia.
##
## [[2]]
## # A tibble: 570 × 3
##    Collegio                 Lista                       Eletto
##    <chr>                    <chr>                       <chr>
##  1 Collegio Unico Nazionale Democrazia Cristiana        Attilio Piccioni
##  2 Collegio Unico Nazionale Democrazia Cristiana        Maria De Unterrichter Jervolino
##  3 Collegio Unico Nazionale Democrazia Cristiana        Giuseppe Fuschini
##  4 Collegio Unico Nazionale Democrazia Cristiana        Edoardo Martino
##  5 Collegio Unico Nazionale Fronte Democratico Popolare Virgilio Nasi
##  6 Collegio Unico Nazionale Fronte Democratico Popolare Rosa Fazio
##  7 Collegio Unico Nazionale Fronte Democratico Popolare Antonio Giolitti
##  8 Collegio Unico Nazionale Fronte Democratico Popolare Silvio Paolucci
##  9 Collegio Unico Nazionale Unità Socialista            Ivan Matteo Lombardo
## 10 Collegio Unico Nazionale Unità Socialista            Roberto Tremelloni
## # … with 560 more rows
…
This code retrieves all tables within the <code>parsed_html</code> object. Based on the exploration of the structure from the XPath, you may remember that the information is in the second table. You can extract it like this:

```r
parsed_html %>% rvest::html_table() %>%
      magrittr::extract2(2) # to extract table 2 from the nested list

## # A tibble: 570 × 3
##    Collegio                 Lista                       Eletto
##    <chr>                    <chr>                       <chr>
##  1 Collegio Unico Nazionale Democrazia Cristiana        Attilio Piccioni
##  2 Collegio Unico Nazionale Democrazia Cristiana        Maria De Unterrichter Jervolino
##  3 Collegio Unico Nazionale Democrazia Cristiana        Giuseppe Fuschini
##  4 Collegio Unico Nazionale Democrazia Cristiana        Edoardo Martino
##  5 Collegio Unico Nazionale Fronte Democratico Popolare Virgilio Nasi
##  6 Collegio Unico Nazionale Fronte Democratico Popolare Rosa Fazio
##  7 Collegio Unico Nazionale Fronte Democratico Popolare Antonio Giolitti
##  8 Collegio Unico Nazionale Fronte Democratico Popolare Silvio Paolucci
##  9 Collegio Unico Nazionale Unità Socialista            Ivan Matteo Lombardo
## 10 Collegio Unico Nazionale Unità Socialista            Roberto Tremelloni
## # … with 560 more rows
```

This already looks a lot like the expected output for the legislature's term. If you think back at the first image in this page, you just miss the URL to each legislator's Wikipedia entry and number of the session. You can do this easily by changing the names of the variables with <code>dplyr::rename()</code>, merging these data with the <code>list_table</code> that contained the URLs, and finally creating a new column with the session name:

```r
parsed_html %>% rvest::html_table() %>%
      magrittr::extract2(2) # to extract table 2 from the nested list
      dplyr::rename("name" = "Eletto", "constituency" = "Collegio", "party" = "Lista") %>% # change names
      dplyr::left_join(., list_table) %>% # join current df with tibble of <a> nodes by name
      dplyr::mutate(session = "1")

## Joining, by = "name"
## # A tibble: 572 × 5
## constituency                party                       name                            url                                   session
## <chr>                       <chr>                       <chr>                           <chr>                                 <chr>
## 1 Collegio Unico Nazionale  Democrazia Cristiana        Attilio Piccioni                /wiki/Attilio_Piccioni                1
## 2 Collegio Unico Nazionale  Democrazia Cristiana        Maria De Unterrichter Jervolino /wiki/Maria_De_Unterrichter_Jervolino 1
## 3 Collegio Unico Nazionale  Democrazia Cristiana        Giuseppe Fuschini               /wiki/Giuseppe_Fuschini               1
## 4 Collegio Unico Nazionale  Democrazia Cristiana        Edoardo Martino                 /wiki/Edoardo_Martino                 1
## 5 Collegio Unico Nazionale  Fronte Democratico Popolare Virgilio Nasi                   /wiki/Virgilio_Nasi                   1
## 6 Collegio Unico Nazionale  Fronte Democratico Popolare Rosa Fazio                      /wiki/Rosa_Fazio                      1
## 7 Collegio Unico Nazionale  Fronte Democratico Popolare Antonio Giolitti                /wiki/Antonio_Giolitti                1
## 8 Collegio Unico Nazionale  Fronte Democratico Popolare Silvio Paolucci                 /wiki/Silvio_Paolucci_(politico)      1
## 9 Collegio Unico Nazionale  Unità Socialista            Ivan Matteo Lombardo            /wiki/Ivan_Matteo_Lombardo            1
## 10 Collegio Unico Nazionale Unità Socialista            Roberto Tremelloni              /wiki/Roberto_Tremelloni              1
## # … with 562 more rows
```
…
